[{
  "id": 1,
  "fecha": "5/26/2019",
  "importe": 36,
  "latitud": 60.6302526,
  "longitud": 28.7309501
}, {
  "id": 2,
  "fecha": "3/2/2019",
  "importe": 97,
  "latitud": 58.0275087,
  "longitud": 15.0052213
}, {
  "id": 3,
  "fecha": "5/25/2019",
  "importe": 24,
  "latitud": 31.920658,
  "longitud": 120.284938
}, {
  "id": 4,
  "fecha": "5/1/2019",
  "importe": 30,
  "latitud": 12.4651824,
  "longitud": 103.8911999
}, {
  "id": 5,
  "fecha": "5/22/2019",
  "importe": 15,
  "latitud": 49.2937975,
  "longitud": 3.7636128
}, {
  "id": 6,
  "fecha": "3/14/2019",
  "importe": 99,
  "latitud": -12.73574,
  "longitud": -72.614288
}, {
  "id": 7,
  "fecha": "2/11/2019",
  "importe": 17,
  "latitud": 58.591557,
  "longitud": 125.430748
}, {
  "id": 8,
  "fecha": "3/2/2019",
  "importe": 19,
  "latitud": 22.454973,
  "longitud": 89.9437755
}, {
  "id": 9,
  "fecha": "2/16/2019",
  "importe": 35,
  "latitud": 40.9951629,
  "longitud": -8.5638609
}, {
  "id": 10,
  "fecha": "6/4/2019",
  "importe": 88,
  "latitud": 10.6365464,
  "longitud": 124.9386692
}, {
  "id": 11,
  "fecha": "3/6/2019",
  "importe": 21,
  "latitud": 12.0111402,
  "longitud": -83.7703693
}, {
  "id": 12,
  "fecha": "11/18/2018",
  "importe": 8,
  "latitud": 20.7240105,
  "longitud": -97.5308167
}, {
  "id": 13,
  "fecha": "5/17/2019",
  "importe": 28,
  "latitud": 55.0615034,
  "longitud": 59.9082587
}, {
  "id": 14,
  "fecha": "10/19/2018",
  "importe": 32,
  "latitud": 43.7931514,
  "longitud": 25.9257256
}, {
  "id": 15,
  "fecha": "8/1/2019",
  "importe": 86,
  "latitud": -9.6498487,
  "longitud": -35.7089492
}, {
  "id": 16,
  "fecha": "10/16/2018",
  "importe": 77,
  "latitud": 31.2633956,
  "longitud": 72.3110986
}, {
  "id": 17,
  "fecha": "8/10/2019",
  "importe": 46,
  "latitud": -7.0407255,
  "longitud": 107.0893798
}, {
  "id": 18,
  "fecha": "9/22/2019",
  "importe": 74,
  "latitud": -7.0715432,
  "longitud": 111.9758606
}, {
  "id": 19,
  "fecha": "12/17/2018",
  "importe": 4,
  "latitud": 27.9937685,
  "longitud": 120.6784858
}, {
  "id": 20,
  "fecha": "4/25/2019",
  "importe": 57,
  "latitud": 49.7821352,
  "longitud": 23.6611306
}]
